Row,Sequence,Modifications
1,LSSPATLNSR,
2,LSEFFEVCK,
3,EADFTTDDMILSK,
4,VNLWFDPSR,
5,LASINVENVETNRR,
6,SMREEGGYEIIKK,
7,SGIWADSLSR,
8,KAVFDEAIKVV,
9,LSSPATLNSR,
10,VNYGVTVLPTFK,
11,FPQVAATGDGPDIIFWAHDR,
12,KYHASAIHVPGPEVAR,
13,LLGVTTLDVAR,
14,VLDELTLTK,
15,AVYECLR,
16,AKNPLDLLPPSPMVLDDWKR,
17,LYYDYYFQR,
18,QFLIII,
19,STTTGHLIYK,
20,NHVYLVMGAIEK,
21,FGLAVGVHNEEGRDEFR,
22,QNGVLNSWTDQDSK,
23,DTDILAAFR,
24,CDTVVSEI,
25,IITHPNFNGNTLDNDIMLIK,
26,SSGSSYPSLLQCLK,
27,VGEEKEIQQGLK,
28,QLIQWPVR,
29,SVFINIKG,
30,LGIHEDSTNR,
31,KFETLSYLPDLSDVELAK,
32,TFQGPPHGIQVER,
33,AQADLYNWR,
34,VAGGMIPK,
35,NVQDAIADAEQR,
36,LLARKLAPE,
37,LAGESESNLR,
38,FGLAVGVHNEEGRDEFR,
39,LNDLEDALQQAK,
40,LGEHNIDVLEGNEQFINAAK,
41,EQHTLIIYDDLSK,
42,VRVPDIR,
43,SAIGEGMTR,
44,VLEGNEQFINAAK,
45,EADFTTDDMILSKK,
46,SSFGSSGSGYGGGGGSGAGSGNR,
47,AGDVLSITETNK,
48,GILGYTEDDVVSTDFVGDNR,
49,NDAADLGAAGGMGGMGGMGGMM,
50,TVVNYDIAK,
51,DLAVEGNEIIR,
52,LYFDSVGHYSR,
53,SSGQNIPSLV,
54,VPVLETPEGSVFESNAIAR,
55,GPVGVEGLLTTR,
56,EITFNFPTIDKLDGQE,
57,AVLMDLEPGTMDSLR,
58,IGLFGGAGVGK,
59,LAAELALR,
60,DTDILAAFR,
61,ASIYNAMPLAGVEK,
62,NIANMVPPFDKVK,
63,YGRPLLGCTIKPK,
64,TALMSSPS,
65,FLEQQNQVLQTK,
66,LGEHNIDVLEGNEQFINAAK,
67,FIGLFLSR,
68,GLDDIADIR,
69,KYHASAIHVPGPEVAR,
70,IPVFLDGGVR,
71,DLLGWESK,
72,VTIVQSSTVYNDTPATIDKAEK,
73,TSTSPIVK,
74,LEGDRESTLGFVDLLR,
75,VTIVQSSTVYNDTPATIDKAEK,
76,QPGVLIQ,
77,STMQELNSR,
78,ARVEDALHATR,
79,PSKADLGVLA,
80,DAYVGDEAQSK,
81,DTDILAAFR,
82,KDLVAVGG,
83,TSTSPIVK,
84,VLDEEFGIVK,
85,KSGLRRWTAK,
86,FGLAVGVHNEEGRDEFR,
87,VATVSLPR,
88,HMNADTDYSIAEAAFNKGETAMTINGPWAWSNIDTSK,
89,TGAEEVYQLGPLNEYER,
90,LMPTSLER,
91,ILIMGGTR,
92,FSIAWSR,
93,EYVGDRLPEFSETEAALVK,
94,IGPVMITR,
95,IITHPNFNGNTLDNDIMLIK,
96,TIEKPVEDPSELPK,
97,AKLYFDSVGHYSRPDVLHLTVNEHPR,
98,FGLAVGVHNEEGRDEFR,
99,VLVEDIFPP,
100,ELDYLVGAVSNPK,
101,EQEAAELKR,
102,IPVFLDGGVR,
103,NLDLDSIIAEVK,
104,GHYLNATAGTCEEMIKR,
105,VTIVQSSTVYNDTPATIDKAEKYIVEAASK,
106,LNIPETK,
107,KTFAEEVNAAFR,
108,LAGESESNLR,
109,TPPTPQDEMR,
110,ATLEDLGQAKR,
111,KNHVYLVMGAIEK,
112,ADVKTKGSCGSEL,
113,QTLLFSATMPWKVEK,
114,VLITDQK,
115,LMPTSLER,
116,DLAVEGNEIIR,
117,VNSAAFPAPIEK,
118,YHASAIKVPGPEVEK,
119,AARIVNALAPNSIAIKL,
120,DKPLGAVALK,
121,MLFDIQK,
122,LVIWINGDKGYNGLAEVGK,
123,DIEVMEAK,
124,FSGVPDR,
125,KSVTFVTKVEK,
126,VGAATEVEMKEK,
127,QSLEASLAETEGR,
128,DLLGWESK,
129,DVLTITLTPK,
130,EGNDLYMEMK,
131,ARYDEIIKEVSSYLK,
132,KVPYPR,
133,SLEERLL,
134,SATGVGIMMNDR,
135,FGMSPSK,
136,DDSGPNAWAYSAWVR,
137,KNHVYLVMGAIEK,
138,TSTSPIVK,
139,DAYVGDEAQSK,
140,DVLTITLTPK,
141,DYAIETPLK,
142,KVSIVSGPTEK,
143,AVDSLVPIGR,
144,GFGFVTYDSSQEVQNAIK,
145,GLGGIMVK,
146,IIAGTAANMGIDIDPPILEPK,
147,GLISEIISR,
148,FLFCAEALYK,
149,SDIKSTW,
150,QCASLQAAIA,
151,ILVDYLQDK,
152,KSIGVLTIESR,
153,GHYLNATAGTCEEMIKR,
154,IVLPVPAFNVINGGSHAGNK,
155,SKAEAESLYQSK,
156,EAYPGDVFYLHSR,
157,ANKFIVEAASK,
158,GMLNVMEHFK,
159,VLLTVKPQYGFGEK,
160,DLDVMEELGVK,
161,SSVLMDVKPWDDETDMK,
162,LSSPATLNSR,
163,YIVEAASK,
164,CDILESLSAL,
165,LGAVRSY,
166,SLNNQFASFIDK,
167,LARLLRD,
168,MGTPALTSR,
169,DVLTITLTPK,
170,LASINVENVETNRR,
171,AVVADLSAR,
172,TVDVLTR,
173,FVEDKI,
174,ESTLGFVDLLRDDYVEK,
175,LGEHNIDVLEGNEQFINAAK,
176,YVNWIQQTIAAN,
177,GLQEFYEEMPISK,
178,DLAVEGNEIIR,
179,NGGALIR,
180,TNVKEVQENILQEIEK,
181,NAGVNGSVVSEK,
182,QQQGTFPHLT,
183,LEGDRESTLGFVDLLR,
184,GLMSFPLDGNNSTDFIEDWVK,
185,LASINVENVETNR,
186,DVGINVR,
187,SSVLMDVKPWDDETDMK,
188,YSEGYPGAR,
189,IDPEIQ,
190,NQFPGANDFGSEVIPGATSLGLR,
191,KSEISELRR,
192,YFWTVVNQPNFTK,
193,FGLAVGVHNEEGRDEFR,
194,TFACSETVK,
195,FEDDFR,
196,IEEELGSEAIYAGVNFR,
197,EYAAFPAPWLR,
198,LYFDSVGHYSRPDVLHLTVNEHPR,
199,LPLQDVYK,
200,MDIFEEIPIK,
201,FYWAPTR,
202,QGIPLITGR,
203,VPTVDVSVVDLTVRLEK,
204,STMQELNSR,
205,LVYTNDGGEIVK,
206,YFYNAK,
207,QSLEASLAETEGR,
208,LSEFFEVCK,
209,KDYDFVK,
210,VNSAAFPAPIEK,
211,LSSPATLNSR,
212,AQAYMELSDLDLAEFDVKK,
213,TFQGPPHGIQVER,
214,TLDNDIMLIK,
215,EGLQVDPK,
216,FVIGGPHGDAGLTGR,
217,LVSESSDVLPK,
218,FAQYTGANAIAGR,
219,QIYPPINVLPSLSR,
220,TAAYYQQGAR,
221,ALEESNYELEGK,
222,DLDTVRPVVDWAK,
223,LDFAVSR,
224,LTYYTPEYETK,
225,LARLLRD,
226,DVLTITLTPK,
227,YHASAIHVPGPEVAR,
228,IQDKEGIPPDQQR,
229,GKDSEFAAIENLPGFEL,
230,LSGGDHIHAGTVVGK,
231,ESTLGFVDLLRDDYVEKDR,
232,TVEIVHYDPK,
233,WKIDGSER,
234,VLDELTLTK,
235,SVTFVTK,
236,GMIGPVMITR,
237,KKFETLSYLPDLSDVELAK,
238,RYIEASAAQEAV,
239,KLIGATDPQK,
240,GSGFVAVEIPFTPR,
241,EIEYPGQVLR,
242,FEEYVK,
243,EILAIEYEIPPK,
244,MPNIYNALVVK,
245,GQPSKPFVGVLSAGINAASPNKELAK,
246,GVSDIPIGLK,
247,ESTLGFVDLLRDDYVEKDR,
248,QFPTIGFEK,
249,SAIGEGMTR,
250,WKIDGSER,
