ptm,organism
None,All
Homoserine,All
Dehydration,All
Pyroglutamic Acid from Gln,All
Disulphine Bond Formation,All
Amidation,All
Citrullination,All
Deamidation,All
Methylation,All
Oxidation,All
Formylation (CHO),All
Acetylation,All
Homoarginine,All
Carboxylation,All
Carbamidomethyl,All
Carboxymethyl,All
Phosphorylation,All
Sulphation,All
Cysteinylation,All
"Pentoses (Ara, Rib, Xyl)",All
"Deoxyhexoses (Fuc, Rha)",All
"Hexosamine (GalN, GlcN)",All
"Hexoses (Fru, Gal, Glc, Man)",All
Lipoic Acid (Amide Bond to Lys),All
"N-acetylhexosamine (GalNAc, GlcNAc)",All
Farnesylation,All
Myristoylation,All
Biotinylation (Amide Bond to Lys),All
Palmitoylation,All
Geranylgeranlylation,All
Hex-HexNac,All
ADP-Ribosylation (from NAD),All

